{
  "project_info": {
    "project_id": "workout-d672e",
    "project_number": "628503802127",
    "name": "Workout"
  },
  "client": [
    {
      "client_info": {
        "mobilesdk_app_id": "1:628503802127:android:24cf5c4c5184aa98",
        "client_id": "android:com.adamstyrc.workout",
        "client_type": 1,
        "android_client_info": {
          "package_name": "com.adamstyrc.workout"
        }
      },
      "oauth_client": [],
      "api_key": [],
      "services": {
        "analytics_service": {
          "status": 2,
          "analytics_property": {
            "tracking_id": "UA-72799629-1"
          }
        },
        "cloud_messaging_service": {
          "status": 1,
          "apns_config": []
        },
        "appinvite_service": {
          "status": 1,
          "other_platform_oauth_client": []
        },
        "google_signin_service": {
          "status": 1
        },
        "ads_service": {
          "status": 1
        }
      }
    }
  ],
  "client_info": [],
  "ARTIFACT_VERSION": "1"
}